<mxfile host="app.diagrams.net" modified="2022-01-10T04:32:04.155Z" agent="5.0 (X11; Linux x86_64) AppleWebKit/537.36 (KHTML, like Gecko) Chrome/86.0.4240.111 Safari/537.36" etag="nevLrik508V-NYwFZjcB" version="16.2.4" type="gitlab">
  <diagram id="cBrI44C7uWb1dA4Y-GjQ" name="Page-1">
    <mxGraphModel dx="942" dy="502" grid="1" gridSize="10" guides="1" tooltips="1" connect="1" arrows="1" fold="1" page="1" pageScale="1" pageWidth="827" pageHeight="1169" math="0" shadow="0">
      <root>
        <mxCell id="0" />
        <mxCell id="1" parent="0" />
        <mxCell id="kV9AxK5hKQLQ3Ww54Nht-164" value="" style="group" vertex="1" connectable="0" parent="1">
          <mxGeometry x="160" y="280" width="600" height="330" as="geometry" />
        </mxCell>
        <mxCell id="kV9AxK5hKQLQ3Ww54Nht-143" value="" style="group" vertex="1" connectable="0" parent="kV9AxK5hKQLQ3Ww54Nht-164">
          <mxGeometry y="250" width="600" height="80" as="geometry" />
        </mxCell>
        <mxCell id="kV9AxK5hKQLQ3Ww54Nht-81" value="" style="group" vertex="1" connectable="0" parent="kV9AxK5hKQLQ3Ww54Nht-143">
          <mxGeometry width="300" height="80" as="geometry" />
        </mxCell>
        <mxCell id="kV9AxK5hKQLQ3Ww54Nht-8" value="" style="group" vertex="1" connectable="0" parent="kV9AxK5hKQLQ3Ww54Nht-81">
          <mxGeometry width="75" height="80" as="geometry" />
        </mxCell>
        <mxCell id="kV9AxK5hKQLQ3Ww54Nht-18" value="" style="group" vertex="1" connectable="0" parent="kV9AxK5hKQLQ3Ww54Nht-8">
          <mxGeometry width="75" height="80" as="geometry" />
        </mxCell>
        <mxCell id="kV9AxK5hKQLQ3Ww54Nht-19" value="" style="group" vertex="1" connectable="0" parent="kV9AxK5hKQLQ3Ww54Nht-18">
          <mxGeometry width="75" height="80" as="geometry" />
        </mxCell>
        <mxCell id="kV9AxK5hKQLQ3Ww54Nht-20" value="" style="group" vertex="1" connectable="0" parent="kV9AxK5hKQLQ3Ww54Nht-19">
          <mxGeometry width="75" height="80" as="geometry" />
        </mxCell>
        <mxCell id="kV9AxK5hKQLQ3Ww54Nht-1" value="Loan App" style="sketch=0;outlineConnect=0;fontColor=#232F3E;gradientColor=none;strokeColor=#232F3E;fillColor=#ffffff;dashed=0;verticalLabelPosition=bottom;verticalAlign=top;align=center;html=1;fontSize=12;fontStyle=0;aspect=fixed;shape=mxgraph.aws4.resourceIcon;resIcon=mxgraph.aws4.mobile_client;" vertex="1" parent="kV9AxK5hKQLQ3Ww54Nht-20">
          <mxGeometry width="75" height="75" as="geometry" />
        </mxCell>
        <mxCell id="kV9AxK5hKQLQ3Ww54Nht-7" value="" style="shape=image;html=1;verticalAlign=top;verticalLabelPosition=bottom;labelBackgroundColor=#ffffff;imageAspect=0;aspect=fixed;image=https://cdn1.iconfinder.com/data/icons/heroicons-solid/20/currency-rupee-128.png" vertex="1" parent="kV9AxK5hKQLQ3Ww54Nht-20">
          <mxGeometry x="22.5" y="24" width="30" height="30" as="geometry" />
        </mxCell>
        <mxCell id="kV9AxK5hKQLQ3Ww54Nht-63" value="" style="group" vertex="1" connectable="0" parent="kV9AxK5hKQLQ3Ww54Nht-81">
          <mxGeometry x="75" width="75" height="80" as="geometry" />
        </mxCell>
        <mxCell id="kV9AxK5hKQLQ3Ww54Nht-64" value="" style="group" vertex="1" connectable="0" parent="kV9AxK5hKQLQ3Ww54Nht-63">
          <mxGeometry width="75" height="80" as="geometry" />
        </mxCell>
        <mxCell id="kV9AxK5hKQLQ3Ww54Nht-65" value="" style="group" vertex="1" connectable="0" parent="kV9AxK5hKQLQ3Ww54Nht-64">
          <mxGeometry width="75" height="80" as="geometry" />
        </mxCell>
        <mxCell id="kV9AxK5hKQLQ3Ww54Nht-66" value="" style="group" vertex="1" connectable="0" parent="kV9AxK5hKQLQ3Ww54Nht-65">
          <mxGeometry width="75" height="80" as="geometry" />
        </mxCell>
        <mxCell id="kV9AxK5hKQLQ3Ww54Nht-67" value="Loan App" style="sketch=0;outlineConnect=0;fontColor=#232F3E;gradientColor=none;strokeColor=#232F3E;fillColor=#ffffff;dashed=0;verticalLabelPosition=bottom;verticalAlign=top;align=center;html=1;fontSize=12;fontStyle=0;aspect=fixed;shape=mxgraph.aws4.resourceIcon;resIcon=mxgraph.aws4.mobile_client;" vertex="1" parent="kV9AxK5hKQLQ3Ww54Nht-66">
          <mxGeometry width="75" height="75" as="geometry" />
        </mxCell>
        <mxCell id="kV9AxK5hKQLQ3Ww54Nht-68" value="" style="shape=image;html=1;verticalAlign=top;verticalLabelPosition=bottom;labelBackgroundColor=#ffffff;imageAspect=0;aspect=fixed;image=https://cdn1.iconfinder.com/data/icons/heroicons-solid/20/currency-rupee-128.png" vertex="1" parent="kV9AxK5hKQLQ3Ww54Nht-66">
          <mxGeometry x="22.5" y="24" width="30" height="30" as="geometry" />
        </mxCell>
        <mxCell id="kV9AxK5hKQLQ3Ww54Nht-69" value="" style="group" vertex="1" connectable="0" parent="kV9AxK5hKQLQ3Ww54Nht-81">
          <mxGeometry x="150" width="75" height="80" as="geometry" />
        </mxCell>
        <mxCell id="kV9AxK5hKQLQ3Ww54Nht-70" value="" style="group" vertex="1" connectable="0" parent="kV9AxK5hKQLQ3Ww54Nht-69">
          <mxGeometry width="75" height="80" as="geometry" />
        </mxCell>
        <mxCell id="kV9AxK5hKQLQ3Ww54Nht-71" value="" style="group" vertex="1" connectable="0" parent="kV9AxK5hKQLQ3Ww54Nht-70">
          <mxGeometry width="75" height="80" as="geometry" />
        </mxCell>
        <mxCell id="kV9AxK5hKQLQ3Ww54Nht-72" value="" style="group" vertex="1" connectable="0" parent="kV9AxK5hKQLQ3Ww54Nht-71">
          <mxGeometry width="75" height="80" as="geometry" />
        </mxCell>
        <mxCell id="kV9AxK5hKQLQ3Ww54Nht-73" value="Loan App" style="sketch=0;outlineConnect=0;fontColor=#232F3E;gradientColor=none;strokeColor=#232F3E;fillColor=#ffffff;dashed=0;verticalLabelPosition=bottom;verticalAlign=top;align=center;html=1;fontSize=12;fontStyle=0;aspect=fixed;shape=mxgraph.aws4.resourceIcon;resIcon=mxgraph.aws4.mobile_client;" vertex="1" parent="kV9AxK5hKQLQ3Ww54Nht-72">
          <mxGeometry width="75" height="75" as="geometry" />
        </mxCell>
        <mxCell id="kV9AxK5hKQLQ3Ww54Nht-74" value="" style="shape=image;html=1;verticalAlign=top;verticalLabelPosition=bottom;labelBackgroundColor=#ffffff;imageAspect=0;aspect=fixed;image=https://cdn1.iconfinder.com/data/icons/heroicons-solid/20/currency-rupee-128.png" vertex="1" parent="kV9AxK5hKQLQ3Ww54Nht-72">
          <mxGeometry x="22.5" y="24" width="30" height="30" as="geometry" />
        </mxCell>
        <mxCell id="kV9AxK5hKQLQ3Ww54Nht-75" value="" style="group" vertex="1" connectable="0" parent="kV9AxK5hKQLQ3Ww54Nht-81">
          <mxGeometry x="225" width="75" height="80" as="geometry" />
        </mxCell>
        <mxCell id="kV9AxK5hKQLQ3Ww54Nht-76" value="" style="group" vertex="1" connectable="0" parent="kV9AxK5hKQLQ3Ww54Nht-75">
          <mxGeometry width="75" height="80" as="geometry" />
        </mxCell>
        <mxCell id="kV9AxK5hKQLQ3Ww54Nht-77" value="" style="group" vertex="1" connectable="0" parent="kV9AxK5hKQLQ3Ww54Nht-76">
          <mxGeometry width="75" height="80" as="geometry" />
        </mxCell>
        <mxCell id="kV9AxK5hKQLQ3Ww54Nht-78" value="" style="group" vertex="1" connectable="0" parent="kV9AxK5hKQLQ3Ww54Nht-77">
          <mxGeometry width="75" height="80" as="geometry" />
        </mxCell>
        <mxCell id="kV9AxK5hKQLQ3Ww54Nht-79" value="Loan App" style="sketch=0;outlineConnect=0;fontColor=#232F3E;gradientColor=none;strokeColor=#232F3E;fillColor=#ffffff;dashed=0;verticalLabelPosition=bottom;verticalAlign=top;align=center;html=1;fontSize=12;fontStyle=0;aspect=fixed;shape=mxgraph.aws4.resourceIcon;resIcon=mxgraph.aws4.mobile_client;" vertex="1" parent="kV9AxK5hKQLQ3Ww54Nht-78">
          <mxGeometry width="75" height="75" as="geometry" />
        </mxCell>
        <mxCell id="kV9AxK5hKQLQ3Ww54Nht-80" value="" style="shape=image;html=1;verticalAlign=top;verticalLabelPosition=bottom;labelBackgroundColor=#ffffff;imageAspect=0;aspect=fixed;image=https://cdn1.iconfinder.com/data/icons/heroicons-solid/20/currency-rupee-128.png" vertex="1" parent="kV9AxK5hKQLQ3Ww54Nht-78">
          <mxGeometry x="22.5" y="24" width="30" height="30" as="geometry" />
        </mxCell>
        <mxCell id="kV9AxK5hKQLQ3Ww54Nht-118" value="" style="group" vertex="1" connectable="0" parent="kV9AxK5hKQLQ3Ww54Nht-143">
          <mxGeometry x="300" width="300" height="80" as="geometry" />
        </mxCell>
        <mxCell id="kV9AxK5hKQLQ3Ww54Nht-119" value="" style="group" vertex="1" connectable="0" parent="kV9AxK5hKQLQ3Ww54Nht-118">
          <mxGeometry width="75" height="80" as="geometry" />
        </mxCell>
        <mxCell id="kV9AxK5hKQLQ3Ww54Nht-120" value="" style="group" vertex="1" connectable="0" parent="kV9AxK5hKQLQ3Ww54Nht-119">
          <mxGeometry width="75" height="80" as="geometry" />
        </mxCell>
        <mxCell id="kV9AxK5hKQLQ3Ww54Nht-121" value="" style="group" vertex="1" connectable="0" parent="kV9AxK5hKQLQ3Ww54Nht-120">
          <mxGeometry width="75" height="80" as="geometry" />
        </mxCell>
        <mxCell id="kV9AxK5hKQLQ3Ww54Nht-122" value="" style="group" vertex="1" connectable="0" parent="kV9AxK5hKQLQ3Ww54Nht-121">
          <mxGeometry width="75" height="80" as="geometry" />
        </mxCell>
        <mxCell id="kV9AxK5hKQLQ3Ww54Nht-123" value="Loan App" style="sketch=0;outlineConnect=0;fontColor=#232F3E;gradientColor=none;strokeColor=#232F3E;fillColor=#ffffff;dashed=0;verticalLabelPosition=bottom;verticalAlign=top;align=center;html=1;fontSize=12;fontStyle=0;aspect=fixed;shape=mxgraph.aws4.resourceIcon;resIcon=mxgraph.aws4.mobile_client;" vertex="1" parent="kV9AxK5hKQLQ3Ww54Nht-122">
          <mxGeometry width="75" height="75" as="geometry" />
        </mxCell>
        <mxCell id="kV9AxK5hKQLQ3Ww54Nht-124" value="" style="shape=image;html=1;verticalAlign=top;verticalLabelPosition=bottom;labelBackgroundColor=#ffffff;imageAspect=0;aspect=fixed;image=https://cdn1.iconfinder.com/data/icons/heroicons-solid/20/currency-rupee-128.png" vertex="1" parent="kV9AxK5hKQLQ3Ww54Nht-122">
          <mxGeometry x="22.5" y="24" width="30" height="30" as="geometry" />
        </mxCell>
        <mxCell id="kV9AxK5hKQLQ3Ww54Nht-125" value="" style="group" vertex="1" connectable="0" parent="kV9AxK5hKQLQ3Ww54Nht-118">
          <mxGeometry x="75" width="75" height="80" as="geometry" />
        </mxCell>
        <mxCell id="kV9AxK5hKQLQ3Ww54Nht-126" value="" style="group" vertex="1" connectable="0" parent="kV9AxK5hKQLQ3Ww54Nht-125">
          <mxGeometry width="75" height="80" as="geometry" />
        </mxCell>
        <mxCell id="kV9AxK5hKQLQ3Ww54Nht-127" value="" style="group" vertex="1" connectable="0" parent="kV9AxK5hKQLQ3Ww54Nht-126">
          <mxGeometry width="75" height="80" as="geometry" />
        </mxCell>
        <mxCell id="kV9AxK5hKQLQ3Ww54Nht-128" value="" style="group" vertex="1" connectable="0" parent="kV9AxK5hKQLQ3Ww54Nht-127">
          <mxGeometry width="75" height="80" as="geometry" />
        </mxCell>
        <mxCell id="kV9AxK5hKQLQ3Ww54Nht-129" value="Loan App" style="sketch=0;outlineConnect=0;fontColor=#232F3E;gradientColor=none;strokeColor=#232F3E;fillColor=#ffffff;dashed=0;verticalLabelPosition=bottom;verticalAlign=top;align=center;html=1;fontSize=12;fontStyle=0;aspect=fixed;shape=mxgraph.aws4.resourceIcon;resIcon=mxgraph.aws4.mobile_client;" vertex="1" parent="kV9AxK5hKQLQ3Ww54Nht-128">
          <mxGeometry width="75" height="75" as="geometry" />
        </mxCell>
        <mxCell id="kV9AxK5hKQLQ3Ww54Nht-130" value="" style="shape=image;html=1;verticalAlign=top;verticalLabelPosition=bottom;labelBackgroundColor=#ffffff;imageAspect=0;aspect=fixed;image=https://cdn1.iconfinder.com/data/icons/heroicons-solid/20/currency-rupee-128.png" vertex="1" parent="kV9AxK5hKQLQ3Ww54Nht-128">
          <mxGeometry x="22.5" y="24" width="30" height="30" as="geometry" />
        </mxCell>
        <mxCell id="kV9AxK5hKQLQ3Ww54Nht-131" value="" style="group" vertex="1" connectable="0" parent="kV9AxK5hKQLQ3Ww54Nht-118">
          <mxGeometry x="150" width="75" height="80" as="geometry" />
        </mxCell>
        <mxCell id="kV9AxK5hKQLQ3Ww54Nht-132" value="" style="group" vertex="1" connectable="0" parent="kV9AxK5hKQLQ3Ww54Nht-131">
          <mxGeometry width="75" height="80" as="geometry" />
        </mxCell>
        <mxCell id="kV9AxK5hKQLQ3Ww54Nht-133" value="" style="group" vertex="1" connectable="0" parent="kV9AxK5hKQLQ3Ww54Nht-132">
          <mxGeometry width="75" height="80" as="geometry" />
        </mxCell>
        <mxCell id="kV9AxK5hKQLQ3Ww54Nht-134" value="" style="group" vertex="1" connectable="0" parent="kV9AxK5hKQLQ3Ww54Nht-133">
          <mxGeometry width="75" height="80" as="geometry" />
        </mxCell>
        <mxCell id="kV9AxK5hKQLQ3Ww54Nht-135" value="Loan App" style="sketch=0;outlineConnect=0;fontColor=#232F3E;gradientColor=none;strokeColor=#232F3E;fillColor=#ffffff;dashed=0;verticalLabelPosition=bottom;verticalAlign=top;align=center;html=1;fontSize=12;fontStyle=0;aspect=fixed;shape=mxgraph.aws4.resourceIcon;resIcon=mxgraph.aws4.mobile_client;" vertex="1" parent="kV9AxK5hKQLQ3Ww54Nht-134">
          <mxGeometry width="75" height="75" as="geometry" />
        </mxCell>
        <mxCell id="kV9AxK5hKQLQ3Ww54Nht-136" value="" style="shape=image;html=1;verticalAlign=top;verticalLabelPosition=bottom;labelBackgroundColor=#ffffff;imageAspect=0;aspect=fixed;image=https://cdn1.iconfinder.com/data/icons/heroicons-solid/20/currency-rupee-128.png" vertex="1" parent="kV9AxK5hKQLQ3Ww54Nht-134">
          <mxGeometry x="22.5" y="24" width="30" height="30" as="geometry" />
        </mxCell>
        <mxCell id="kV9AxK5hKQLQ3Ww54Nht-137" value="" style="group" vertex="1" connectable="0" parent="kV9AxK5hKQLQ3Ww54Nht-118">
          <mxGeometry x="225" width="75" height="80" as="geometry" />
        </mxCell>
        <mxCell id="kV9AxK5hKQLQ3Ww54Nht-138" value="" style="group" vertex="1" connectable="0" parent="kV9AxK5hKQLQ3Ww54Nht-137">
          <mxGeometry width="75" height="80" as="geometry" />
        </mxCell>
        <mxCell id="kV9AxK5hKQLQ3Ww54Nht-139" value="" style="group" vertex="1" connectable="0" parent="kV9AxK5hKQLQ3Ww54Nht-138">
          <mxGeometry width="75" height="80" as="geometry" />
        </mxCell>
        <mxCell id="kV9AxK5hKQLQ3Ww54Nht-140" value="" style="group" vertex="1" connectable="0" parent="kV9AxK5hKQLQ3Ww54Nht-139">
          <mxGeometry width="75" height="80" as="geometry" />
        </mxCell>
        <mxCell id="kV9AxK5hKQLQ3Ww54Nht-141" value="Loan App" style="sketch=0;outlineConnect=0;fontColor=#232F3E;gradientColor=none;strokeColor=#232F3E;fillColor=#ffffff;dashed=0;verticalLabelPosition=bottom;verticalAlign=top;align=center;html=1;fontSize=12;fontStyle=0;aspect=fixed;shape=mxgraph.aws4.resourceIcon;resIcon=mxgraph.aws4.mobile_client;" vertex="1" parent="kV9AxK5hKQLQ3Ww54Nht-140">
          <mxGeometry width="75" height="75" as="geometry" />
        </mxCell>
        <mxCell id="kV9AxK5hKQLQ3Ww54Nht-142" value="" style="shape=image;html=1;verticalAlign=top;verticalLabelPosition=bottom;labelBackgroundColor=#ffffff;imageAspect=0;aspect=fixed;image=https://cdn1.iconfinder.com/data/icons/heroicons-solid/20/currency-rupee-128.png" vertex="1" parent="kV9AxK5hKQLQ3Ww54Nht-140">
          <mxGeometry x="22.5" y="24" width="30" height="30" as="geometry" />
        </mxCell>
        <mxCell id="kV9AxK5hKQLQ3Ww54Nht-144" value="" style="shape=mxgraph.signs.travel.bank;html=1;pointerEvents=1;fillColor=#000000;strokeColor=none;verticalLabelPosition=bottom;verticalAlign=top;align=center;" vertex="1" parent="kV9AxK5hKQLQ3Ww54Nht-164">
          <mxGeometry x="80" width="99" height="86" as="geometry" />
        </mxCell>
        <mxCell id="kV9AxK5hKQLQ3Ww54Nht-155" value="" style="group" vertex="1" connectable="0" parent="kV9AxK5hKQLQ3Ww54Nht-164">
          <mxGeometry x="60" y="130" width="173" height="79.5" as="geometry" />
        </mxCell>
        <mxCell id="kV9AxK5hKQLQ3Ww54Nht-145" value="" style="outlineConnect=0;dashed=0;verticalLabelPosition=bottom;verticalAlign=top;align=center;html=1;shape=mxgraph.aws3.office_building;fillColor=#7D7C7C;gradientColor=none;" vertex="1" parent="kV9AxK5hKQLQ3Ww54Nht-155">
          <mxGeometry width="33" height="79.5" as="geometry" />
        </mxCell>
        <mxCell id="kV9AxK5hKQLQ3Ww54Nht-146" value="" style="outlineConnect=0;dashed=0;verticalLabelPosition=bottom;verticalAlign=top;align=center;html=1;shape=mxgraph.aws3.office_building;fillColor=#7D7C7C;gradientColor=none;" vertex="1" parent="kV9AxK5hKQLQ3Ww54Nht-155">
          <mxGeometry x="70" width="33" height="79.5" as="geometry" />
        </mxCell>
        <mxCell id="kV9AxK5hKQLQ3Ww54Nht-147" value="" style="outlineConnect=0;dashed=0;verticalLabelPosition=bottom;verticalAlign=top;align=center;html=1;shape=mxgraph.aws3.office_building;fillColor=#7D7C7C;gradientColor=none;" vertex="1" parent="kV9AxK5hKQLQ3Ww54Nht-155">
          <mxGeometry x="140" width="33" height="79.5" as="geometry" />
        </mxCell>
        <mxCell id="kV9AxK5hKQLQ3Ww54Nht-156" value="" style="group" vertex="1" connectable="0" parent="kV9AxK5hKQLQ3Ww54Nht-164">
          <mxGeometry x="360" y="130" width="173" height="79.5" as="geometry" />
        </mxCell>
        <mxCell id="kV9AxK5hKQLQ3Ww54Nht-157" value="" style="outlineConnect=0;dashed=0;verticalLabelPosition=bottom;verticalAlign=top;align=center;html=1;shape=mxgraph.aws3.office_building;fillColor=#7D7C7C;gradientColor=none;" vertex="1" parent="kV9AxK5hKQLQ3Ww54Nht-156">
          <mxGeometry width="33" height="79.5" as="geometry" />
        </mxCell>
        <mxCell id="kV9AxK5hKQLQ3Ww54Nht-158" value="" style="outlineConnect=0;dashed=0;verticalLabelPosition=bottom;verticalAlign=top;align=center;html=1;shape=mxgraph.aws3.office_building;fillColor=#7D7C7C;gradientColor=none;" vertex="1" parent="kV9AxK5hKQLQ3Ww54Nht-156">
          <mxGeometry x="70" width="33" height="79.5" as="geometry" />
        </mxCell>
        <mxCell id="kV9AxK5hKQLQ3Ww54Nht-159" value="" style="outlineConnect=0;dashed=0;verticalLabelPosition=bottom;verticalAlign=top;align=center;html=1;shape=mxgraph.aws3.office_building;fillColor=#7D7C7C;gradientColor=none;" vertex="1" parent="kV9AxK5hKQLQ3Ww54Nht-156">
          <mxGeometry x="140" width="33" height="79.5" as="geometry" />
        </mxCell>
        <mxCell id="kV9AxK5hKQLQ3Ww54Nht-160" value="" style="shape=mxgraph.signs.travel.bank;html=1;pointerEvents=1;fillColor=#000000;strokeColor=none;verticalLabelPosition=bottom;verticalAlign=top;align=center;" vertex="1" parent="kV9AxK5hKQLQ3Ww54Nht-164">
          <mxGeometry x="259" width="99" height="86" as="geometry" />
        </mxCell>
        <mxCell id="kV9AxK5hKQLQ3Ww54Nht-162" value="" style="shape=mxgraph.signs.travel.bank;html=1;pointerEvents=1;fillColor=#000000;strokeColor=none;verticalLabelPosition=bottom;verticalAlign=top;align=center;" vertex="1" parent="kV9AxK5hKQLQ3Ww54Nht-164">
          <mxGeometry x="438" width="99" height="86" as="geometry" />
        </mxCell>
        <mxCell id="kV9AxK5hKQLQ3Ww54Nht-165" value="" style="fontColor=#0066CC;verticalAlign=top;verticalLabelPosition=bottom;labelPosition=center;align=center;html=1;outlineConnect=0;fillColor=#CCCCCC;strokeColor=#6881B3;gradientColor=none;gradientDirection=north;strokeWidth=2;shape=mxgraph.networks.security_camera;" vertex="1" parent="1">
          <mxGeometry x="120" y="80" width="100" height="75" as="geometry" />
        </mxCell>
        <mxCell id="kV9AxK5hKQLQ3Ww54Nht-166" value="" style="shape=image;html=1;verticalAlign=top;verticalLabelPosition=bottom;labelBackgroundColor=#ffffff;imageAspect=0;aspect=fixed;image=https://cdn2.iconfinder.com/data/icons/bitsies/128/Bank-128.png" vertex="1" parent="1">
          <mxGeometry x="385" y="120" width="128" height="128" as="geometry" />
        </mxCell>
        <mxCell id="kV9AxK5hKQLQ3Ww54Nht-167" value="Digital Lending WatchTower" style="text;strokeColor=none;fillColor=none;html=1;fontSize=48;fontStyle=1;verticalAlign=middle;align=center;" vertex="1" parent="1">
          <mxGeometry x="390" y="10" width="110" height="40" as="geometry" />
        </mxCell>
        <mxCell id="kV9AxK5hKQLQ3Ww54Nht-168" value="" style="shape=image;html=1;verticalAlign=top;verticalLabelPosition=bottom;labelBackgroundColor=#ffffff;imageAspect=0;aspect=fixed;image=https://cdn2.iconfinder.com/data/icons/font-awesome/1792/cc-128.png;fontSize=48;" vertex="1" parent="1">
          <mxGeometry x="680" y="80" width="75" height="75" as="geometry" />
        </mxCell>
      </root>
    </mxGraphModel>
  </diagram>
</mxfile>
